friendship analysis
…
sov.long <- soviet %>%
    unnest_tokens(word, text)
sov_clean = sov.long %>% anti_join(stopwords)
sov_clean = sov_clean %>% anti_join(names)
sov_clean = sov_clean %>% anti_join(my_stopwords)

post_clean %>% 
  group_by(word) %>% 
  count(sort = TRUE)

## # A tibble: 25,496 x 2
## # Groups:   word [25,496]
##    word            n
##    <chr>       <int>
##  1         10321
##  2       4204
##  3         1959
##  4          1929
##  5       1517
##  6      1419
##  7      1308
##  8        1301
##  9   1299
## 10          1265
## #  with 25,486 more rows

sov_clean %>% 
  group_by(word) %>% 
  count(sort = TRUE)

## # A tibble: 27,824 x 2
## # Groups:   word [27,824]
##    word            n
##    <chr>       <int>
##  1         12937
##  2        2558
##  3       2111
##  4         2046
##  5          1999
##  6       1929
##  7      1758
##  8   1440
##  9          1348
## 10           1316
## #  with 27,814 more rows

Counting pairwise correlations

library(widyr)

corc_word_pairs <- post_clean %>% 
  pairwise_count(word, book, sort = TRUE)

corc_word_pairs

## # A tibble: 5,232,360 x 3
##    item1       item2           n
##    <chr>       <chr>       <dbl>
##  1                   906
##  2                   906
##  3                  848
##  4                  848
##  5            704
##  6            704
##  7               680
##  8               680
##  9               604
## 10               604
## #  with 5,232,350 more rows

corc_word_pairs_sov <- sov_clean %>% 
  pairwise_count(word, book, sort = TRUE)

corc_word_pairs_sov

## # A tibble: 5,587,456 x 3
##    item1       item2           n
##    <chr>       <chr>       <dbl>
##  1                  1038
##  2                  1038
##  3                 1029
##  4                 1029
##  5               905
##  6               905
##  7            803
##  8            803
##  9                   788
## 10                   788
## #  with 5,587,446 more rows
…
Looking at the words with highest correlation

# we need to filter for at least relatively common words first
word_cors <- post_clean %>%
  group_by(word) %>%
  filter(n() >= 20) %>%
  pairwise_cor(word, book, sort = TRUE)

word_cors

## # A tibble: 5,960,922 x 3
##    item1     item2     correlation
##    <chr>     <chr>           <dbl>
##  1                    0.917
##  2                    0.917
##  3                 0.843
##  4                 0.843
##  5                0.738
##  6                0.738
##  7           0.704
##  8           0.704
##  9                  0.694
## 10                  0.694
## #  with 5,960,912 more rows
…
word_cors <- sov_clean %>%
  group_by(word) %>%
  filter(n() >= 20) %>%
  pairwise_cor(word, book, sort = TRUE)

word_cors

## # A tibble: 7,472,022 x 3
##    item1    item2    correlation
##    <chr>    <chr>          <dbl>
##  1                0.650
##  2                0.650
##  3              0.626
##  4              0.626
##  5         0.615
##  6         0.615
##  7                 0.587
##  8                 0.587
##  9               0.580
## 10               0.580
## #  with 7,472,012 more rows
…
bigrams_filtered <- bigrams_filtered %>%
  filter(!word1 %in% my_stopwords$word) %>%
  filter(!word2 %in% my_stopwords$word)

bigrams_filtered <- bigrams_filtered %>%
  filter(!word1 %in% names$word) %>%
  filter(!word2 %in% names$word)

bigram_counts <- bigrams_filtered %>% 
  count(word1, word2, sort = TRUE)

bigram_counts

## # A tibble: 106,518 x 3
##    word1     word2        n
##    <chr>     <chr>    <int>
##  1           373
##  2        295
##  3              252
##  4              243
##  5             169
##  6             151
##  7         141
##  8         107
##  9            102
## 10           97
## #  with 106,508 more rows

bi_fr = bigrams_filtered %>%
filter(word1 == "" | word1 == "" | word1 == "" | word1 ==""| word2 == "" | word2 == "" | word2 == "" | word2 =="") %>%
count(book, word1, word2, sort = TRUE)

bigram_counts <- bi_fr %>% 
  count(word1, word2, sort = TRUE)

bigram_counts

## # A tibble: 5,975 x 3
##    word1     word2       n
##    <chr>     <chr>   <int>
##  1          265
##  2       242
##  3             193
##  4             178
##  5            122
##  6        107
##  7            97
##  8               73
##  9           58
## 10             56
## #  with 5,965 more rows
…
bigrams_filtered_sov <- bigrams_filtered_sov %>%
  filter(!word1 %in% my_stopwords$word) %>%
  filter(!word2 %in% my_stopwords$word)

bigrams_filtered_sov <- bigrams_filtered_sov %>%
  filter(!word1 %in% names$word) %>%
  filter(!word2 %in% names$word)

bigram_counts_sov <- bigrams_filtered_sov %>% 
  count(word1, word2, sort = TRUE)

bigram_counts_sov

## # A tibble: 121,359 x 3
##    word1     word2     n
##    <chr>     <chr> <int>
##  1        314
##  2           252
##  3         230
##  4           210
##  5      190
##  6          172
##  7         171
##  8            159
##  9        140
## 10          104
## #  with 121,349 more rows
…
